^c:\Users\t-sisund\documents\visual studio 2015\Projects\producer83161\com.example.SafetyAlarm\com.example.SafetyAlarm.vcxproj
c:\Users\t-sisund\documents\visual studio 2015\Projects\producer83161\com.example.SafetyAlarm\ARM\Debug\priconfig.xml
c:\Users\t-sisund\documents\visual studio 2015\Projects\producer83161\com.example.SafetyAlarm\ARM\Debug\layout.resfiles
c:\Users\t-sisund\documents\visual studio 2015\Projects\producer83161\com.example.SafetyAlarm\ARM\Debug\resources.resfiles
c:\Users\t-sisund\documents\visual studio 2015\Projects\producer83161\com.example.SafetyAlarm\ARM\Debug\pri.resfiles
c:\Users\t-sisund\documents\visual studio 2015\Projects\producer83161\com.example.SafetyAlarm\ARM\Debug\embed.resfiles
^C:\Users\t-ashar\Documents\Visual Studio 2015\Projects\alljoynproducer8316\com.example.SafetyAlarm\com.example.SafetyAlarm.vcxproj
C:\Users\t-ashar\Documents\Visual Studio 2015\Projects\alljoynproducer8316\com.example.SafetyAlarm\ARM\Debug\priconfig.xml
C:\Users\t-ashar\Documents\Visual Studio 2015\Projects\alljoynproducer8316\com.example.SafetyAlarm\ARM\Debug\layout.resfiles
C:\Users\t-ashar\Documents\Visual Studio 2015\Projects\alljoynproducer8316\com.example.SafetyAlarm\ARM\Debug\resources.resfiles
C:\Users\t-ashar\Documents\Visual Studio 2015\Projects\alljoynproducer8316\com.example.SafetyAlarm\ARM\Debug\pri.resfiles
C:\Users\t-ashar\Documents\Visual Studio 2015\Projects\alljoynproducer8316\com.example.SafetyAlarm\ARM\Debug\embed.resfiles
